<?xml version="1.0" encoding="utf-8"?>
<!-- Generator: Adobe Illustrator 21.1.0, SVG Export Plug-In . SVG Version: 6.00 Build 0)  -->
<svg version="1.1" id="Layer_1" xmlns="http://www.w3.org/2000/svg" xmlns:xlink="http://www.w3.org/1999/xlink" x="0px" y="0px"
	 viewBox="0 0 87.5173 80.3367" style="enable-background:new 0 0 87.5173 80.3367;" xml:space="preserve">
<style type="text/css">
	.st0{fill:#6D50BA;}
	.st1{fill:none;stroke:#6D50BA;stroke-width:3;stroke-miterlimit:10;}
	.st2{fill:#FFFFFF;}
</style>
<g>
	<g>
		<path class="st0" d="M50.7243,50.0573c5.4837-0.8231,8.8677-4.4228,10.3456-9.5846c0.3967-1.3888-1.7599-1.9774-2.1566-0.5937
			c-0.9454,3.3084-2.6034,5.8353-5.8557,7.1952c-1.5527,0.6523-5.8056,2.0589-7.1043,0.3219
			c-1.1484-1.5366-1.094-4.0873-1.1611-5.9092c-0.028-0.7492-0.6481-1.1051-1.2282-1.0736c-0.581-0.0314-1.201,0.3245-1.2291,1.0736
			c-0.062,1.6869-0.2276,3.3245-0.7092,4.9486c-0.8876,2.9882-5.5466,1.3403-7.5562,0.6387
			c-3.2719-1.1399-4.9477-4.0193-5.8566-7.1952c-0.3958-1.3837-2.5533-0.795-2.1558,0.5937
			c1.5442,5.3971,4.8526,8.4048,10.3456,9.5846c1.9918,0.4264,4.9401,0.8214,6.3373-1.0465
			c0.3389-0.4527,0.6022-0.9471,0.8239-1.4601c0.2208,0.513,0.4842,1.0074,0.8231,1.4601
			C45.8327,50.9432,48.6756,50.3639,50.7243,50.0573z"/>
	</g>
	<g>
		<path class="st0" d="M84.746,29.9241c-2.5363-4.2793-5.6621-8.2553-8.7055-12.1803c-2.2866-2.95-4.0117-5.4327-8.2876-4.3693
			c-4.5213,1.1246-7.8187,3.13-5.3733,8.1899c1.9519,4.0363,4.9367,1.6945,8.0659,0.4154c0.9021-0.3678,0.3032-0.6982,0.835,0.7407
			c0.4977,1.3471,0.8817,2.7418,1.2817,4.1204c0.265,0.9106,0.5181,1.8245,0.7653,2.7393c-1.1968-0.4748-2.4556-0.7466-3.8027-0.846
			c-2.7376-0.2039-3.6023,2.7818-6.4664,1.822c-2.5907-0.8689-5.5865-0.5453-8.1058,0.3584
			c-2.6238,0.942-4.0372,1.7599-5.894-0.6668c1.6105-2.098,2.4386-5.0522,2.5414-7.3778c0.2107-4.7838-2.9805-9.6321-7.9266-10.005
			c-5.1083-0.3839-7.6242,5.5525-7.9045,9.7239c-0.017,0.0875-0.0263,0.1801-0.0212,0.2811
			c-0.0042,0.0994,0.0042,0.1911,0.0204,0.2769c0.1767,2.8285,1.1407,5.6264,2.9992,7.4976
			c-1.703,1.9315-3.0994,1.156-5.5686,0.2693c-2.7019-0.97-5.3172-0.9394-8.1066-0.3584c-2.8531,0.5954-3.7526-2.0233-6.4656-1.822
			c-1.342,0.0994-2.5949,0.3703-3.7866,0.8409c0.1673-0.6184,0.3279-1.2376,0.4986-1.8542
			c0.3253-1.1679,0.6727-2.3307,1.0312-3.4893c0.1588-0.5062,0.3253-1.0099,0.5011-1.5119
			c0.2387-0.6974,0.4578-0.8426,0.4171-0.8978c2.2721,0.6022,6.3662,4.1247,8.0514,0.6362
			c2.3341-4.8305,1.1501-6.8614-3.4239-8.7063c-4.4389-1.7888-6.8105,0.2005-9.3128,3.3636
			c-3.0995,3.9217-6.1021,7.9529-8.7972,12.1642c-1.4193,2.2178-2.916,4.8271-1.7302,7.4484
			c0.6175,1.3641,2.1846,2.3231,3.3415,3.1759c2.9415,2.1668,6.2269,4.5366,9.6568,5.8362c2.0173,0.7628,4.6037,1.478,6.9548,1.2129
			c4.9537,6.2159,8.8872,14.2639,8.798,22.2932c-0.0161,1.4414,2.2195,1.4397,2.2356,0c0.0917-8.2697-3.7407-16.4205-8.7275-22.9515
			c0.1971-0.0977,0.3907-0.2072,0.5776-0.3304c1.2002-0.7865,0.0815-2.7223-1.128-1.929c-0.3567,0.2336-0.7483,0.3848-1.1509,0.5028
			c-0.2268-0.0331-0.4527,0.0297-0.6498,0.1563c-1.7141,0.2701-3.6456-0.214-5.166-0.6736
			c-3.0765-0.9309-5.8082-3.0527-8.4574-4.8008c-1.5298-1.0082-3.3424-2.0385-4.3549-3.6193
			c-1.1305-1.7625,1.7727-5.2747,2.6365-6.5888c2.1923-3.3339,4.6071-6.5335,7.0508-9.6848
			c0.6906-0.8927,1.3964-1.7735,2.115-2.6433c1.8942-2.2934,5.2773-0.9963,7.5562,0.1002c1.7922,0.8621,0.7746,5.6544-1.6911,4.5443
			c-0.7899-0.355-1.5697-0.7313-2.3605-1.0847c-0.7568-0.3372-1.8636-0.9428-2.7351-0.7237
			c-2.9644,0.7458-3.9106,9.4122-4.5621,11.9433c-0.2302,0.8978,0.7967,1.8347,1.6419,1.2622
			c1.7515-1.1858,4.1714-2.3605,6.3586-1.2656c0.8027,0.4018,1.348,1.3692,2.2433,1.6495c0.8672,0.2693,1.1314,0.2302,2.0343,0.0705
			c3.2022-0.5614,6.379-1.7616,9.3221,0.5742c2.5737,2.0419,5.1346,0.3873,6.9379-1.7744c0.9055,0.4859,1.9383,0.8086,3.1198,0.8987
			c1.4779,0.1121,2.7308-0.3185,3.7849-1.0711c1.8092,2.2441,4.4364,4.0423,7.078,1.9468c2.2526-1.7871,5.3104-1.5867,7.9283-1.0414
			c0.739,0.1546,1.9086,0.8698,2.7639,0.6031c0.7058-0.2208,1.2019-0.4357,1.7752-0.9309c2.3231-2.0063,5.1745-1.2282,7.49,0.3398
			c0.8451,0.5725,1.8721-0.3652,1.6419-1.2622c-0.6523-2.5303-1.5977-11.1976-4.5613-11.9433
			c-3.0791-0.7746-5.9364,5.0165-7.569-0.1325c-1.1798-3.7153,6.2796-5.0709,8.0421-3.0553
			c0.8426,0.9641,1.6232,1.9867,2.4123,2.995c2.2781,2.9083,4.4619,5.8957,6.5522,8.9424c1.1212,1.6351,4.1332,5.1261,3.1351,7.3311
			c-1.4346,3.1716-7.8612,6.0307-10.7032,7.5384c-2.3953,1.2707-6.5599,2.555-9.1191,0.891
			c-1.2121-0.7899-2.3307,1.1467-1.128,1.929c0.1427,0.0926,0.2896,0.1758,0.4383,0.254c-1.7727,2.4522-3.0459,5.2671-4.608,7.8467
			c-0.0629,0.1028-0.1019,0.2056-0.1283,0.3066c-2.4794,4.529-3.9106,9.6984-3.8359,14.8797c0.0212,1.4397,2.2568,1.4414,2.2356,0
			c-0.0739-5.0879,1.3947-10.1443,3.9463-14.5196c0.0314-0.0544,0.0527-0.1079,0.0739-0.1605
			c1.4771-2.5567,2.7274-5.3588,4.5808-7.6565c2.019,0.2684,4.2206-0.1911,6.0265-0.7347c3.2872-0.9921,6.1683-3.1606,8.9959-5.025
			c1.6325-1.077,3.807-2.3163,4.8959-4.0142C87.3613,34.7223,86.0549,32.1299,84.746,29.9241z M41.2417,30.0285
			c-0.1368-0.1945-0.3415-0.3483-0.5776-0.4357c-1.7863-1.6003-2.589-4.6632-2.6807-6.7238
			c0.1529-3.4528,1.7285-7.4704,5.6909-7.7694c3.9361-0.2973,5.5584,4.7863,5.6909,7.7694c0.1529,3.4443-1.9553,7.49-5.6909,7.7711
			C42.7341,30.7114,41.9297,30.4702,41.2417,30.0285z"/>
	</g>
</g>
</svg>
