<?xml version="1.0" encoding="utf-8"?>
<!-- Generator: Adobe Illustrator 21.1.0, SVG Export Plug-In . SVG Version: 6.00 Build 0)  -->
<svg version="1.1" id="Layer_1" xmlns="http://www.w3.org/2000/svg" xmlns:xlink="http://www.w3.org/1999/xlink" x="0px" y="0px"
	 viewBox="0 0 87.5173 80.3367" style="enable-background:new 0 0 87.5173 80.3367;" xml:space="preserve">
<style type="text/css">
	.st0{fill:#6D50BA;}
	.st1{fill:none;stroke:#6D50BA;stroke-width:3;stroke-miterlimit:10;}
	.st2{fill:#FFFFFF;}
</style>
<g>
	<path class="st0" d="M68.4875,71.066H19.6753c-0.7082,0-1.2828-0.5746-1.2828-1.2828V10.5252c0-0.7082,0.5746-1.2828,1.2828-1.2828
		h38.3145c0.3182,0,0.6255,0.1186,0.861,0.3324l5.1102,4.6283l5.3532,4.5114c0.289,0.243,0.456,0.6021,0.456,0.9805v50.0883
		C69.7703,70.4915,69.1957,71.066,68.4875,71.066z M20.9581,68.5005h46.2466V20.2913l-4.9315-4.1573l-4.7778-4.326H20.9581V68.5005z
		"/>
</g>
<g>
	<path class="st0" d="M61.7997,29.0435H40.2882c-0.7082,0-1.2828-0.5746-1.2828-1.2828c0-0.7082,0.5746-1.2828,1.2828-1.2828
		h21.5115c0.7082,0,1.2828,0.5746,1.2828,1.2828C63.0825,28.469,62.5079,29.0435,61.7997,29.0435z"/>
</g>
<g>
	<path class="st0" d="M61.7997,43.5741H40.2882c-0.7082,0-1.2828-0.5746-1.2828-1.2828c0-0.7082,0.5746-1.2828,1.2828-1.2828
		h21.5115c0.7082,0,1.2828,0.5746,1.2828,1.2828C63.0825,42.9995,62.5079,43.5741,61.7997,43.5741z"/>
</g>
<g>
	<path class="st0" d="M61.7997,58.1047H40.2882c-0.7082,0-1.2828-0.5746-1.2828-1.2828s0.5746-1.2828,1.2828-1.2828h21.5115
		c0.7082,0,1.2828,0.5746,1.2828,1.2828S62.5079,58.1047,61.7997,58.1047z"/>
</g>
<g>
	<path class="st0" d="M34.2418,32.7323h-8.232c-0.4727,0-0.8552-0.3825-0.8552-0.8552v-8.232c0-0.4727,0.3825-0.8552,0.8552-0.8552
		h8.232c0.4727,0,0.8552,0.3825,0.8552,0.8552v8.232C35.097,32.3499,34.7145,32.7323,34.2418,32.7323z M26.865,31.022h6.5216
		v-6.5216H26.865V31.022z"/>
</g>
<g>
	<path class="st0" d="M34.2418,47.2621h-8.232c-0.4727,0-0.8552-0.3825-0.8552-0.8552v-8.2311c0-0.4727,0.3825-0.8552,0.8552-0.8552
		h8.232c0.4727,0,0.8552,0.3825,0.8552,0.8552v8.2311C35.097,46.8796,34.7145,47.2621,34.2418,47.2621z M26.865,45.5517h6.5216
		V39.031H26.865V45.5517z"/>
</g>
<g>
	<path class="st0" d="M34.2418,61.7927h-8.232c-0.4727,0-0.8552-0.3825-0.8552-0.8552v-8.232c0-0.4727,0.3825-0.8552,0.8552-0.8552
		h8.232c0.4727,0,0.8552,0.3825,0.8552,0.8552v8.232C35.097,61.4102,34.7145,61.7927,34.2418,61.7927z M26.865,60.0823h6.5216
		v-6.5216H26.865V60.0823z"/>
</g>
<g>
	<path class="st0" d="M29.8281,30.4366c-0.238,0-0.466-0.0994-0.6289-0.2756l-1.5066-1.6352
		c-0.3199-0.3474-0.2981-0.8886,0.0493-1.2084c0.3483-0.319,0.8886-0.2973,1.2084,0.0493l0.7366,0.8001l1.4415-2.371
		c0.2455-0.4025,0.7717-0.532,1.175-0.2865c0.4034,0.2455,0.532,0.7717,0.2864,1.175l-2.0311,3.3414
		c-0.1395,0.2297-0.3792,0.38-0.6464,0.4067C29.8841,30.4349,29.8565,30.4366,29.8281,30.4366z"/>
</g>
<g>
	<path class="st0" d="M29.8281,44.8176c-0.238,0-0.466-0.0994-0.6289-0.2756l-1.5066-1.6352
		c-0.3199-0.3474-0.2981-0.8886,0.0493-1.2084c0.3483-0.319,0.8886-0.2973,1.2084,0.0493l0.7366,0.8001l1.4415-2.371
		c0.2455-0.4034,0.7717-0.532,1.175-0.2865c0.4034,0.2455,0.532,0.7717,0.2864,1.175l-2.0311,3.3414
		c-0.1395,0.2297-0.3792,0.38-0.6464,0.4067C29.8841,44.816,29.8565,44.8176,29.8281,44.8176z"/>
</g>
</svg>
